(function(){var h=this,aa=/^[\w+/_-]+[=]{0,2}$/,m=null,n=function(){};var p=function(a){a=parseFloat(a);return isNaN(a)||1<a||0>a?0:a};var ba=p("0.20"),ca=p("0.00"),da=p("0.00");var q;a:{var r=h.navigator;if(r){var t=r.userAgent;if(t){q=t;break a}}q=""};var u=function(a){u[" "](a);return a};u[" "]=n;var v=function(a){var b=!1,d;return function(){b||(d=a(),b=!0);return d}};var x=function(){this.a="";this.b=w},w={};var y=function(a,b){a.src=b instanceof x&&b.constructor===x&&b.b===w?b.a:"type_error:TrustedResourceUrl";if(null===m){a:{b=h.document;if((b=b.querySelector&&b.querySelector("script[nonce]"))&&(b=b.nonce||b.getAttribute("nonce"))&&aa.test(b))break a;b=null}m=b||""}(b=m)&&a.setAttribute("nonce",b)};var z=function(a){ea();var b=new x;b.a=a;return b},ea=n;var fa=function(){if(!h.crypto)return Math.random();try{var a=new Uint32Array(1);h.crypto.getRandomValues(a);return a[0]/65536/65536}catch(b){return Math.random()}},A=function(a,b){if(a)for(var d in a)Object.prototype.hasOwnProperty.call(a,d)&&b.call(void 0,a[d],d,a)},ha=v(function(){return-1!=q.indexOf("Google Web Preview")||1E-4>Math.random()}),ia=v(function(){return-1!=q.indexOf("MSIE")});var ja=/^true$/.test("false"),B=/^true$/.test("true"),ka=/^true$/.test("true");var C=null,ma=function(){var a=la,b=[],d=0,c;for(c in a)b[d++]=a[c];this.b={};this.a={};a=b||[];b=0;for(d=a.length;b<d;++b)this.a[a[b]]=""},D=function(){if(null===C){C="";try{var a="";try{a=h.top.location.hash}catch(d){a=h.location.hash}if(a){var b=a.match(/\bdeid=([\d,]+)/);C=b?b[1]:""}}catch(d){}}return C},F=function(a,b,d){var c=E;if(d?c.a.hasOwnProperty(d)&&""==c.a[d]:1){var e;e=(e=D())?(e=e.match(new RegExp("\\b("+a.join("|")+")\\b")))?e[0]:null:null;if(e)a=e;else a:{if(!ia()&&!ha()&&(e=Math.random(),
e<b)){e=fa();a=a[Math.floor(e*a.length)];break a}a=null}a&&""!=a&&(d?c.a.hasOwnProperty(d)&&(c.a[d]=a):c.b[a]=!0)}},G=function(a){var b=E;return b.a.hasOwnProperty(a)?b.a[a]:""},na=function(){var a=E,b=[];A(a.b,function(a,c){b.push(c)});A(a.a,function(a){""!=a&&b.push(a)});return b};var la={g:2,i:13,h:14},E=null;var oa=/^UA-\d+-\d+%3A[\w-]+(?:%2C[\w-]+)*(?:%3BUA-\d+-\d+%3A[\w-]+(?:%2C[\w-]+)*)*$/,pa=/^[\w-]+(?:\.[\w-]+)*$/,H=/^\d+\.fls\.doubleclick\.net$/,qa=/;gac=([^;?]+)/,ra=/;gclaw=([^;?]+)/,I=function(a,b){if(H.test(a.location.host)){if((b=a.location.href.match(ra))&&2==b.length&&b[1].match(pa))return b[1]}else{var d=(b||"_gcl")+"_aw";b=[];a=a.cookie.split(";");d=new RegExp("^\\s*"+d+"=\\s*(.*?)\\s*$");for(var c=0;c<a.length;c++){var e=a[c].match(d);e&&b.push(e[1])}a=[];if(b&&0!=b.length)for(d=0;d<b.length;d++)c=
b[d].split("."),3==c.length&&"GCL"==c[0]&&c[1]&&a.push(c[2]);if(0<a.length)return a.join(".")}return""};var ta=function(a,b,d){a=sa(a,!0);if(a[b])return!1;a[b]=[];a[b][0]=d;return!0},sa=function(a,b){var d=a.GooglebQhCsO;d||(d={},b&&(a.GooglebQhCsO=d));return d};var J=null,K=null,ua=function(a){for(var b=[],d=0,c=0;c<a.length;c++){var e=a.charCodeAt(c);255<e&&(b[d++]=e&255,e>>=8);b[d++]=e}if(!J)for(J={},K={},a=0;65>a;a++)J[a]="ABCDEFGHIJKLMNOPQRSTUVWXYZabcdefghijklmnopqrstuvwxyz0123456789+/=".charAt(a),K[a]="ABCDEFGHIJKLMNOPQRSTUVWXYZabcdefghijklmnopqrstuvwxyz0123456789-_.".charAt(a);a=K;d=[];for(c=0;c<b.length;c+=3){var f=b[c],g=(e=c+1<b.length)?b[c+1]:0,k=c+2<b.length,l=k?b[c+2]:0,Ia=f>>2;f=(f&3)<<4|g>>4;g=(g&15)<<2|l>>6;l&=63;k||(l=64,e||(g=64));d.push(a[Ia],
a[f],a[g],a[l])}return d.join("")};var va=/^(?:([^:/?#.]+):)?(?:\/\/(?:([^/?#]*)@)?([^/#?]*?)(?::([0-9]+))?(?=[/#?]|$))?([^?#]+)?(?:\?([^#]*))?(?:#([\s\S]*))?$/,wa=function(a){var b=a.match(va);a=b[5];var d=b[6];b=b[7];var c="";a&&(c+=a);d&&(c+="?"+d);b&&(c+="#"+b);return c},L=function(a,b,d,c){for(var e=d.length;0<=(b=a.indexOf(d,b))&&b<c;){var f=a.charCodeAt(b-1);if(38==f||63==f)if(f=a.charCodeAt(b+e),!f||61==f||38==f||35==f)return b;b+=e+1}return-1},M=/#|$/,N=function(a,b){var d=a.search(M),c=L(a,0,b,d);if(0>c)return null;var e=
a.indexOf("&",c);if(0>e||e>d)e=d;c+=b.length+1;return decodeURIComponent(a.substr(c,e-c).replace(/\+/g," "))},xa=/[?&]($|#)/,O=function(a,b,d){for(var c=a.search(M),e=0,f,g=[];0<=(f=L(a,e,b,c));)g.push(a.substring(e,f)),e=Math.min(a.indexOf("&",f)+1||c,c);g.push(a.substr(e));a=g.join("").replace(xa,"$1");d=null!=d?"="+encodeURIComponent(String(d)):"";(b+=d)?(d=a.indexOf("#"),0>d&&(d=a.length),c=a.indexOf("?"),0>c||c>d?(c=d,e=""):e=a.substring(c+1,d),d=[a.substr(0,c),e,a.substr(d)],a=d[1],d[1]=b?a?
a+"&"+b:b:a,b=d[0]+(d[1]?"?"+d[1]:"")+d[2]):b=a;return b};var ya=function(a,b,d,c){var e=N(d,"fmt");if(c){var f=N(d,"random"),g=N(d,"label")||"";if(!f)return!1;f=ua(decodeURIComponent(g.replace(/\+/g," "))+":"+decodeURIComponent(f.replace(/\+/g," "))).replace(/[.]*$/,"");if(!ta(a,f,c))return!1}e&&4!=e&&(d=O(d,"rfmt",e));d=O(d,"fmt",4);e=document.createElement("SCRIPT");y(e,z(d));e.onload=function(){a.google_noFurtherRedirects&&c&&c.call&&(a.google_noFurtherRedirects=null,c())};b.getElementsByTagName("script")[0].parentElement.appendChild(e);return!0};var P="google_conversion_id google_conversion_format google_conversion_type google_conversion_order_id google_conversion_language google_conversion_value google_conversion_evaluemrc google_conversion_currency google_conversion_domain google_conversion_label google_conversion_color google_disable_viewthrough google_enable_display_cookie_match google_gtag_event_data google_remarketing_only google_remarketing_for_search google_tag_for_child_directed_treatment google_tag_for_under_age_of_consent google_allow_ad_personalization_signals google_conversion_items google_conversion_merchant_id google_user_id google_custom_params google_conversion_date google_conversion_time google_conversion_js_version onload_callback opt_image_generator google_conversion_page_url google_conversion_referrer_url google_gtm google_gcl_cookie_prefix google_read_gcl_cookie_opt_out google_basket_feed_country google_basket_feed_language google_basket_discount google_basket_transaction_type google_disable_merchant_reported_conversions".split(" "),
Q=["google_conversion_first_time","google_conversion_snippets"],R=function(a){return null!=a?encodeURIComponent(String(a)):""},za=function(a){if(null!=a){a=String(a).substring(0,512);var b=a.indexOf("#");return-1==b?a:a.substring(0,b)}return""},S=function(a,b){b=R(b);return""!=b&&(a=R(a),""!=a)?"&".concat(a,"=",b):""},T=function(a){var b=typeof a;return null==a||"object"==b||"function"==b?null:String(a).replace(/,/g,"\\,").replace(/;/g,"\\;").replace(/=/g,"\\=")},Aa=function(a){if(!a||"object"!=typeof a||
"function"==typeof a.join)return"";var b=[],d;for(d in a)if(Object.prototype.hasOwnProperty.call(a,d)){var c=a[d];if(c&&"function"==typeof c.join){for(var e=[],f=0;f<c.length;++f){var g=T(c[f]);null!=g&&e.push(g)}c=0==e.length?null:e.join(",")}else c=T(c);(e=T(d))&&null!=c&&b.push(e+"="+c)}return b.join(";")},Ba=function(a,b){b=void 0===b?null:b;a=Aa(a.google_custom_params);b=Aa(b);b=a.concat(0<a.length&&0<b.length?";":"",b);return""==b?"":"&".concat("data=",encodeURIComponent(b))},Ca=function(a){return null==
a||0!=a&&1!=a?"":S("tfcd",a)},Da=function(a){return null==a||0!=a&&1!=a?"":S("tfua",a)},Ea=function(a){return!1===a?S("npa",1):!0===a?S("npa",0):""},Fa=function(a){if(null!=a){a=a.toString();if(2==a.length)return S("hl",a);if(5==a.length)return S("hl",a.substring(0,2))+S("gl",a.substring(3,5))}return""};function U(a){return"number"!=typeof a&&"string"!=typeof a?"":R(a.toString())}
var Ga=function(a){if(!a)return"";a=a.google_conversion_items;if(!a)return"";for(var b=[],d=0,c=a.length;d<c;d++){var e=a[d],f=[];e&&(f.push(U(e.value)),f.push(U(e.quantity)),f.push(U(e.item_id)),f.push(U(e.start_date)),f.push(U(e.end_date)),b.push("("+f.join("*")+")"))}return 0<b.length?"&item="+b.join(""):""},Ha=function(a,b){if(b.google_read_gcl_cookie_opt_out||b.google_remarketing_only||b.google_conversion_domain)return"";var d="";if(b.google_gcl_cookie_prefix&&/^[a-zA-Z0-9_]+$/.test(b.google_gcl_cookie_prefix))return d=
I(a,b.google_gcl_cookie_prefix),S("gclaw",d);(b=I(a))&&(d=S("gclaw",b));if(H.test(a.location.host))var c=(c=a.location.href.match(qa))&&2==c.length&&c[1].match(oa)?decodeURIComponent(c[1]):"";else{b=[];a=a.cookie.split(";");for(var e=/^\s*_gac_(UA-\d+-\d+)=\s*(.+?)\s*$/,f=0;f<a.length;f++){var g=a[f].match(e);g&&b.push({c:g[1],value:g[2]})}a={};if(b&&b.length)for(e=0;e<b.length;e++)f=b[e].value.split("."),"1"==f[0]&&3==f.length&&f[1]&&(a[b[e].c]||(a[b[e].c]=[]),a[b[e].c].push({timestamp:f[1],f:f[2]}));
b=[];for(c in a){e=[];f=a[c];for(g=0;g<f.length;g++)e.push(f[g].f);b.push(c+":"+e.join(","))}c=0<b.length?b.join(";"):""}return d+(c?S("gac",c):"")},Ja=function(a,b,d){var c=[];if(a){var e=a.screen;e&&(c.push(S("u_h",e.height)),c.push(S("u_w",e.width)),c.push(S("u_ah",e.availHeight)),c.push(S("u_aw",e.availWidth)),c.push(S("u_cd",e.colorDepth)));a.history&&c.push(S("u_his",a.history.length))}d&&"function"==typeof d.getTimezoneOffset&&c.push(S("u_tz",-d.getTimezoneOffset()));b&&("function"==typeof b.javaEnabled&&
c.push(S("u_java",b.javaEnabled())),b.plugins&&c.push(S("u_nplug",b.plugins.length)),b.mimeTypes&&c.push(S("u_nmime",b.mimeTypes.length)));return c.join("")};function Ka(a){a=a?a.title:"";if(void 0==a||""==a)return"";var b=function(a){try{return decodeURIComponent(a),!0}catch(e){return!1}};a=encodeURIComponent(a);for(var d=256;!b(a.substr(0,d));)d--;return"&tiba="+a.substr(0,d)}
var La=function(a,b,d,c){var e="";if(b){if(a.top==a)var f=0;else{var g=a.location.ancestorOrigins;if(g)f=g[g.length-1]==a.location.origin?1:2;else{g=a.top;try{var k;if(k=!!g&&null!=g.location.href)c:{try{u(g.foo);k=!0;break c}catch(l){}k=!1}f=k}catch(l){f=!1}f=f?1:2}}a=d?d:1==f?a.top.location.href:a.location.href;e+=S("frm",f);e+=S("url",za(a));e+=S("ref",za(c||b.referrer))}return e},V=function(a,b){return!(ja||b&&Ma.test(navigator.userAgent))||a&&a.location&&a.location.protocol&&"https:"==a.location.protocol.toString().toLowerCase()?
"https:":"http:"},Na=function(a,b,d){d=d.google_remarketing_only?"googleads.g.doubleclick.net":d.google_conversion_domain||"www.googleadservices.com";return V(a,/www[.]googleadservices[.]com/i.test(d))+"//"+d+b},Pa=function(a,b,d,c){var e=void 0===e?null:e;var f="/?";"landing"==c.google_conversion_type&&(f="/extclk?");f=[c.google_remarketing_only?"/pagead/viewthroughconversion/":"/pagead/conversion/",R(c.google_conversion_id),f,"random=",R(c.google_conversion_time)].join("");f=Na(a,f,c);e=void 0===
e?null:e;a=[S("cv",c.google_conversion_js_version),S("fst",c.google_conversion_first_time),S("num",c.google_conversion_snippets),S("fmt",c.google_conversion_format),c.google_remarketing_only?S("userId",c.google_user_id):"",Ca(c.google_tag_for_child_directed_treatment),Da(c.google_tag_for_under_age_of_consent),Ea(c.google_allow_ad_personalization_signals),S("value",c.google_conversion_value),S("evaluemrc",c.google_conversion_evaluemrc),S("currency_code",c.google_conversion_currency),S("label",c.google_conversion_label),
S("oid",c.google_conversion_order_id),S("bg",c.google_conversion_color),Fa(c.google_conversion_language),S("guid","ON"),!c.google_conversion_domain&&"GooglemKTybQhCsO"in h&&"function"==typeof h.GooglemKTybQhCsO?S("resp","GooglemKTybQhCsO"):"",S("disvt",c.google_disable_viewthrough),S("eid",na().join()),Ja(a,b,c.google_conversion_date),Ba(c,e),S("gtm",c.google_gtm),Ha(d,c),b&&b.sendBeacon?S("sendb","1"):"",La(a,d,c.google_conversion_page_url,c.google_conversion_referrer_url),c.google_remarketing_for_search&&
!c.google_conversion_domain?"&srr=n":"",Ka(d)].join("");b=D();a+=0<b.length?"&debug_experiment_id="+b:"";c.google_remarketing_only||c.google_conversion_domain?c=a:(Oa(c)&&!c.google_basket_transaction_type&&(c.google_basket_transaction_type="mrc"),b=[S("mid",c.google_conversion_merchant_id),S("fcntr",c.google_basket_feed_country),S("flng",c.google_basket_feed_language),S("dscnt",c.google_basket_discount),S("bttype",c.google_basket_transaction_type)].join(""),c=[a,b,Ga(c)].join(""),c=2E3<c.length?[a,
S("item","elngth")].join(""):c);return f+c},Qa=function(a,b,d,c,e,f,g){return'<iframe name="'+a+'"'+(g?' id="'+g+'"':"")+' title="'+b+'" width="'+c+'" height="'+e+'"'+(d?' src="'+d+'"':"")+' frameborder="0" marginwidth="0" marginheight="0" vspace="0" hspace="0" allowtransparency="true"'+(f?' style="display:none"':"")+' scrolling="no"></iframe>'},Ra=function(a){return{ar:1,bg:1,cs:1,da:1,de:1,el:1,en_AU:1,en_US:1,en_GB:1,es:1,et:1,fi:1,fr:1,hi:1,hr:1,hu:1,id:1,is:1,it:1,iw:1,ja:1,ko:1,lt:1,nl:1,no:1,
pl:1,pt_BR:1,pt_PT:1,ro:1,ru:1,sk:1,sl:1,sr:1,sv:1,th:1,tl:1,tr:1,vi:1,zh_CN:1,zh_TW:1}[a]?a+".html":"en_US.html"},Ma=/Android ([01]\.|2\.[01])/i,Sa=function(a,b){if(!b.google_remarketing_only||!b.google_enable_display_cookie_match||B||!E||"376635471"!=G(2))return"";a=V(a,!1)+"//bid.g.doubleclick.net/xbbe/pixel?d=KAE";return Qa("google_cookie_match_frame","Google cookie match frame",a,1,1,!0,null)},Ua=function(a,b,d,c){var e="";c.google_remarketing_only&&c.google_enable_display_cookie_match&&!B&&
(E&&F(["376635470","376635471"],ba,2),e=Sa(a,c));c.google_remarketing_only&&!c.google_conversion_domain&&E&&F(["759238990","759238991"],ca,13);!c.google_remarketing_only||c.google_conversion_domain||E&&("759248991"==G(14)||"759248990"==G(14))||E&&F(["759248990","759248991"],da,14);b=Pa(a,b,d,c);var f=function(a,b,c,d){return'<img height="'+c+'" width="'+b+'" border="0" alt="" src="'+a+'"'+(d?' style="display:none"':"")+" />"};if(0==c.google_conversion_format&&null==c.google_conversion_domain)return'<a href="'+
(V(a,!1)+"//services.google.com/sitestats/"+Ra(c.google_conversion_language)+"?cid="+R(c.google_conversion_id))+'" target="_blank">'+f(b,135,27,!1)+"</a>"+e;if(1<c.google_conversion_snippets||3==c.google_conversion_format){var g=b;null==c.google_conversion_domain&&(g=3==c.google_conversion_format?b:O(b,"fmt",3));return Ta(a,d,c,g)?e:f(g,1,1,!0)+e}f=null;!c.google_conversion_domain&&Ta(a,d,c,b)&&(f="goog_conv_iframe",b="");return Qa("google_conversion_frame","Google conversion frame",b,2==c.google_conversion_format?
200:300,2==c.google_conversion_format?26:13,!1,f)+e};function Va(){return new Image}function Ta(a,b,d,c){if(d.google_conversion_domain)return!1;try{return ya(a,b,c,null)}catch(e){return!1}}
var Wa=function(a,b){b+=S("async","1");a=a.opt_image_generator;var d=Va;a&&a.call&&(d=a);a=d();a.src=b;a.onload=function(){}},Xa=function(a,b,d){var c=Math.floor(1E9*Math.random());c=[R(d.google_conversion_id),"/?random=",c].join("");c=V(a,!1)+"//www.google.com/ads/user-lists/"+c;a=[S("label",d.google_conversion_label),S("fmt","3"),La(a,b,d.google_conversion_page_url,d.google_conversion_referrer_url)].join("");Wa(d,c+a)},Ya=function(a,b){for(var d=document.createElement("IFRAME"),c=[],e=[],f=0;f<
b.google_conversion_items.length;f++){var g=b.google_conversion_items[f];g&&g.quantity&&(g.sku||g.item_id)&&(c.push(g.sku||g.item_id),e.push(g.quantity))}f="";null!=b.google_basket_feed_language&&null!=b.google_basket_feed_country?f="&mrc_language="+b.google_basket_feed_language.toString()+"&mrc_country="+b.google_basket_feed_country.toString():null!=b.google_conversion_language&&(g=b.google_conversion_language.toString(),5==g.length&&(f="&mrc_language="+g.substring(0,2)+"&mrc_country="+g.substring(3,
5)));a=V(a,!1)+"//www.google.com/ads/mrc";d.src=a+"?sku="+c.join(",")+"&qty="+e.join(",")+"&oid="+b.google_conversion_order_id+"&mcid="+b.google_conversion_merchant_id+f;d.style.width="1px";d.style.height="1px";d.style.display="none";return d},Oa=function(a){return!a.google_disable_merchant_reported_conversions&&!!a.google_conversion_merchant_id&&!!a.google_conversion_order_id&&!!a.google_conversion_items},Za=function(a){if("landing"==a.google_conversion_type||!a.google_conversion_id||a.google_remarketing_only&&
a.google_disable_viewthrough)return!1;a.google_conversion_date=new Date;a.google_conversion_time=a.google_conversion_date.getTime();a.google_conversion_snippets="number"==typeof a.google_conversion_snippets&&0<a.google_conversion_snippets?a.google_conversion_snippets+1:1;"number"!=typeof a.google_conversion_first_time&&(a.google_conversion_first_time=a.google_conversion_time);a.google_conversion_js_version="9";0!=a.google_conversion_format&&1!=a.google_conversion_format&&2!=a.google_conversion_format&&
3!=a.google_conversion_format&&(a.google_conversion_format=3);!1!==a.google_enable_display_cookie_match&&(a.google_enable_display_cookie_match=!0);E=new ma;ka&&(a.google_remarketing_for_search=!1);return!0},$a=function(a){for(var b=0;b<P.length;b++)a[P[b]]=null},ab=function(a){for(var b={},d=0;d<P.length;d++)b[P[d]]=a[P[d]];for(d=0;d<Q.length;d++)b[Q[d]]=a[Q[d]];return b},bb=function(a){var b=document.getElementsByTagName("head")[0];b||(b=document.createElement("HEAD"),document.getElementsByTagName("html")[0].insertBefore(b,
document.getElementsByTagName("body")[0]));var d=document.createElement("SCRIPT");a=Na(window,"/pagead/conversion_debug_overlay.js",a);y(d,z(a));b.appendChild(d)};var cb=function(a){return{visible:1,hidden:2,prerender:3,preview:4,unloaded:5}[a.visibilityState||a.webkitVisibilityState||a.mozVisibilityState||""]||0},db=function(a){var b;a.visibilityState?b="visibilitychange":a.mozVisibilityState?b="mozvisibilitychange":a.webkitVisibilityState&&(b="webkitvisibilitychange");return b},eb=function(a,b){if(3==cb(b))return!1;a();return!0},fb=function(a,b){if(!eb(a,b)){var d=!1,c=db(b),e=function(){!d&&eb(a,b)&&(d=!0,b.removeEventListener&&b.removeEventListener(c,e,
!1))};c&&b.addEventListener&&b.addEventListener(c,e,!1)}};var gb=function(a,b,d){var c=d.length+1,e=function(){--c;if(0>=c){var d=sa(a,!1),e=d[b];e&&(delete d[b],(d=e[0])&&d.call&&d())}},f=function(a,b){var c=new Image;c.onload=a;c.src=b};if(2==d.length){var g=d[0],k=d[1];0<=L(g,0,"rmt_tld",g.search(M))&&0<=L(g,0,"ipr",g.search(M))&&!k.match(va)[6]&&(k+=wa(g),d[1]=O(k,"rmt_tld","1"))}for(g=0;g<d.length;g++){k=d[g];var l=N(k,"fmt");switch(parseInt(l,10)){case 1:case 2:(l=a.document.getElementById("goog_conv_iframe"))&&!l.src?(l.onload=e,l.src=k):f(e,k);break;
case 4:ya(a,a.document,k,e);break;case 5:if(a.navigator&&a.navigator.sendBeacon)if(a.navigator.sendBeacon(k,"")){e();break}else k=O(k,"sendb",2);k=O(k,"fmt",3);default:f(e,k)}}e()},W=["GooglemKTybQhCsO"],X=h;W[0]in X||"undefined"==typeof X.execScript||X.execScript("var "+W[0]);for(var Y;W.length&&(Y=W.shift());){var Z;if(Z=!W.length)Z=void 0!==gb;Z?X[Y]=gb:X[Y]&&X[Y]!==Object.prototype[Y]?X=X[Y]:X=X[Y]={}}
(function(a,b,d){if(a)if(null!=/[\?&;]google_debug/.exec(document.URL))bb(a);else{try{if(Za(a))if(3==cb(d)){var c=ab(a),e="google_conversion_"+Math.floor(1E9*Math.random());d.write('<span id="'+e+'"></span>');fb(function(){try{var f=d.getElementById(e);f&&(f.innerHTML=Ua(a,b,d,c),c.google_remarketing_for_search&&!c.google_conversion_domain&&Xa(a,d,c))}catch(g){}},d)}else d.write(Ua(a,b,d,a)),a.google_remarketing_for_search&&!a.google_conversion_domain&&Xa(a,d,a);Oa(a)&&d.documentElement.appendChild(Ya(a,
a))}catch(f){}$a(a)}})(window,navigator,document);}).call(this);
